%YAML 1.1
%TAG !u! tag:unity3d.com,2011:
--- !u!114 &11400000
MonoBehaviour:
  m_ObjectHideFlags: 0
  m_PrefabParentObject: {fileID: 0}
  m_PrefabInternal: {fileID: 0}
  m_GameObject: {fileID: 0}
  m_Enabled: 1
  m_EditorHideFlags: 0
  m_Script: {fileID: 11500000, guid: ffab180efbed366498e9908ea0c6c184, type: 3}
  m_Name: __actions_default
  m_EditorClassIdentifier: 
  allActions:
  - {fileID: 11400000, guid: 9ca4ff0b82ce1f1419fbf64641c88c58, type: 2}
  - {fileID: 11400000, guid: ba27a2ff5178b6247881bd3fe8c6f0d4, type: 2}
  - {fileID: 11400000, guid: 9b76feecc3ba27d49a24e4b4a37a2509, type: 2}
  - {fileID: 11400000, guid: fb6a68009ffb8334389956e422c942c1, type: 2}
  - {fileID: 11400000, guid: 9cd17abb132735b42b951feffc82fc11, type: 2}
  - {fileID: 11400000, guid: 64fbf661c80470143ba65cfb92cc5d4a, type: 2}
  - {fileID: 11400000, guid: 2a9b242928e48d240ae64b735dcf6244, type: 2}
  - {fileID: 11400000, guid: c45e2bd6385de38449da50d0f1ddc9c4, type: 2}
  - {fileID: 11400000, guid: 934fecb177e64bd44904f1ba80aab8f4, type: 2}
  nonVisualInActions:
  - {fileID: 11400000, guid: 9ca4ff0b82ce1f1419fbf64641c88c58, type: 2}
  - {fileID: 11400000, guid: ba27a2ff5178b6247881bd3fe8c6f0d4, type: 2}
  - {fileID: 11400000, guid: 9b76feecc3ba27d49a24e4b4a37a2509, type: 2}
  - {fileID: 11400000, guid: fb6a68009ffb8334389956e422c942c1, type: 2}
  - {fileID: 11400000, guid: c45e2bd6385de38449da50d0f1ddc9c4, type: 2}
  visualActions:
  - {fileID: 11400000, guid: 9cd17abb132735b42b951feffc82fc11, type: 2}
  - {fileID: 11400000, guid: 64fbf661c80470143ba65cfb92cc5d4a, type: 2}
  - {fileID: 11400000, guid: 2a9b242928e48d240ae64b735dcf6244, type: 2}
  poseActions:
  - {fileID: 11400000, guid: 9cd17abb132735b42b951feffc82fc11, type: 2}
  - {fileID: 11400000, guid: 64fbf661c80470143ba65cfb92cc5d4a, type: 2}
  - {fileID: 11400000, guid: 2a9b242928e48d240ae64b735dcf6244, type: 2}
  skeletonActions:
  - {fileID: 11400000, guid: 64fbf661c80470143ba65cfb92cc5d4a, type: 2}
  - {fileID: 11400000, guid: 2a9b242928e48d240ae64b735dcf6244, type: 2}
  outActionArray:
  - {fileID: 11400000, guid: 934fecb177e64bd44904f1ba80aab8f4, type: 2}
  fullPath: /actions/default
  usage: single
  inActions: {fileID: 11400000, guid: 36ae024bd71d3b741ac6cf3736ba806d, type: 2}
  outActions: {fileID: 11400000, guid: da16ff3dff5872e4db3b93e03c4ed379, type: 2}
